sim/wave_soc_top.vcd
$date
	Tue Mar 24 10:16:56 2026
$end
$version
	Icarus Verilog
$end
$timescale
	1ps
$end
$scope module tb_soc_top $end
$var reg 1 ! clk $end
$var reg 1 " rstn $end
$scope module dut $end
$var wire 1 ! clk $end
$var wire 1 " rstn $end
$var wire 1 # sel_imem $end
$var wire 1 $ sel_sram $end
$var wire 4 % sram_we_byte [3:0] $end
$var wire 1 & sram_re $end
$var wire 1 ' sram_mem_ready $end
$var wire 32 ( sram_mem_rdata [31:0] $end
$var wire 32 ) sram_dout [31:0] $end
$var wire 32 * sram_din [31:0] $end
$var wire 2 + sram_addr [1:0] $end
$var wire 4 , mem_wstrb [3:0] $end
$var wire 32 - mem_wdata [31:0] $end
$var wire 1 . mem_valid $end
$var wire 1 / mem_ready $end
$var wire 32 0 mem_rdata [31:0] $end
$var wire 1 1 mem_instr $end
$var wire 32 2 mem_addr [31:0] $end
$var wire 32 3 imem_rdata [31:0] $end
$scope module cpu $end
$var wire 1 ! clk $end
$var wire 32 4 dbg_mem_addr [31:0] $end
$var wire 1 5 dbg_mem_instr $end
$var wire 32 6 dbg_mem_rdata [31:0] $end
$var wire 1 7 dbg_mem_ready $end
$var wire 1 8 dbg_mem_valid $end
$var wire 32 9 dbg_mem_wdata [31:0] $end
$var wire 4 : dbg_mem_wstrb [3:0] $end
$var wire 1 ; instr_trap $end
$var wire 32 < irq [31:0] $end
$var wire 1 = launch_next_insn $end
$var wire 1 > mem_done $end
$var wire 1 ? mem_la_firstword $end
$var wire 1 @ mem_la_firstword_xfer $end
$var wire 1 A mem_la_read $end
$var wire 1 B mem_la_use_prefetched_high_word $end
$var wire 1 C mem_la_write $end
$var wire 32 D mem_rdata [31:0] $end
$var wire 32 E mem_rdata_latched [31:0] $end
$var wire 1 / mem_ready $end
$var wire 1 F mem_xfer $end
$var wire 32 G pcpi_div_rd [31:0] $end
$var wire 1 H pcpi_div_ready $end
$var wire 1 I pcpi_div_wait $end
$var wire 1 J pcpi_div_wr $end
$var wire 32 K pcpi_mul_rd [31:0] $end
$var wire 1 L pcpi_mul_ready $end
$var wire 1 M pcpi_mul_wait $end
$var wire 1 N pcpi_mul_wr $end
$var wire 32 O pcpi_rd [31:0] $end
$var wire 1 P pcpi_ready $end
$var wire 32 Q pcpi_rs1 [31:0] $end
$var wire 32 R pcpi_rs2 [31:0] $end
$var wire 1 S pcpi_wait $end
$var wire 1 T pcpi_wr $end
$var wire 1 " resetn $end
$var wire 32 U next_pc [31:0] $end
$var wire 32 V mem_rdata_latched_noshuffle [31:0] $end
$var wire 32 W mem_la_addr [31:0] $end
$var wire 1 X mem_busy $end
$var wire 1 Y is_rdcycle_rdcycleh_rdinstr_rdinstrh $end
$var parameter 1 Z BARREL_SHIFTER $end
$var parameter 1 [ CATCH_ILLINSN $end
$var parameter 1 \ CATCH_MISALIGN $end
$var parameter 1 ] COMPRESSED_ISA $end
$var parameter 1 ^ ENABLE_COUNTERS $end
$var parameter 1 _ ENABLE_COUNTERS64 $end
$var parameter 1 ` ENABLE_DIV $end
$var parameter 1 a ENABLE_FAST_MUL $end
$var parameter 1 b ENABLE_IRQ $end
$var parameter 1 c ENABLE_IRQ_QREGS $end
$var parameter 1 d ENABLE_IRQ_TIMER $end
$var parameter 1 e ENABLE_MUL $end
$var parameter 1 f ENABLE_PCPI $end
$var parameter 1 g ENABLE_REGS_16_31 $end
$var parameter 1 h ENABLE_REGS_DUALPORT $end
$var parameter 1 i ENABLE_TRACE $end
$var parameter 32 j LATCHED_IRQ $end
$var parameter 1 k LATCHED_MEM_RDATA $end
$var parameter 32 l MASKED_IRQ $end
$var parameter 32 m PROGADDR_IRQ $end
$var parameter 32 n PROGADDR_RESET $end
$var parameter 1 o REGS_INIT_ZERO $end
$var parameter 32 p STACKADDR $end
$var parameter 36 q TRACE_ADDR $end
$var parameter 36 r TRACE_BRANCH $end
$var parameter 36 s TRACE_IRQ $end
$var parameter 1 t TWO_CYCLE_ALU $end
$var parameter 1 u TWO_CYCLE_COMPARE $end
$var parameter 1 v TWO_STAGE_SHIFT $end
$var parameter 1 w WITH_PCPI $end
$var parameter 8 x cpu_state_exec $end
$var parameter 8 y cpu_state_fetch $end
$var parameter 8 z cpu_state_ld_rs1 $end
$var parameter 8 { cpu_state_ld_rs2 $end
$var parameter 8 | cpu_state_ldmem $end
$var parameter 8 } cpu_state_shift $end
$var parameter 8 ~ cpu_state_stmem $end
$var parameter 8 !" cpu_state_trap $end
$var parameter 32 "" irq_buserror $end
$var parameter 32 #" irq_ebreak $end
$var parameter 32 $" irq_timer $end
$var parameter 32 %" irqregs_offset $end
$var parameter 32 &" regfile_size $end
$var parameter 32 '" regindex_bits $end
$var reg 32 (" alu_add_sub [31:0] $end
$var reg 1 )" alu_eq $end
$var reg 1 *" alu_lts $end
$var reg 1 +" alu_ltu $end
$var reg 32 ," alu_out [31:0] $end
$var reg 1 -" alu_out_0 $end
$var reg 1 ." alu_out_0_q $end
$var reg 32 /" alu_out_q [31:0] $end
$var reg 32 0" alu_shl [31:0] $end
$var reg 32 1" alu_shr [31:0] $end
$var reg 1 2" alu_wait $end
$var reg 1 3" alu_wait_2 $end
$var reg 64 4" cached_ascii_instr [63:0] $end
$var reg 32 5" cached_insn_imm [31:0] $end
$var reg 32 6" cached_insn_opcode [31:0] $end
$var reg 5 7" cached_insn_rd [4:0] $end
$var reg 5 8" cached_insn_rs1 [4:0] $end
$var reg 5 9" cached_insn_rs2 [4:0] $end
$var reg 1 :" clear_prefetched_high_word $end
$var reg 1 ;" clear_prefetched_high_word_q $end
$var reg 1 <" compressed_instr $end
$var reg 64 =" count_cycle [63:0] $end
$var reg 64 >" count_instr [63:0] $end
$var reg 8 ?" cpu_state [7:0] $end
$var reg 32 @" cpuregs_rs1 [31:0] $end
$var reg 32 A" cpuregs_rs2 [31:0] $end
$var reg 32 B" cpuregs_wrdata [31:0] $end
$var reg 1 C" cpuregs_write $end
$var reg 32 D" current_pc [31:0] $end
$var reg 64 E" dbg_ascii_instr [63:0] $end
$var reg 128 F" dbg_ascii_state [127:0] $end
$var reg 32 G" dbg_insn_addr [31:0] $end
$var reg 32 H" dbg_insn_imm [31:0] $end
$var reg 32 I" dbg_insn_opcode [31:0] $end
$var reg 5 J" dbg_insn_rd [4:0] $end
$var reg 5 K" dbg_insn_rs1 [4:0] $end
$var reg 5 L" dbg_insn_rs2 [4:0] $end
$var reg 1 M" dbg_next $end
$var reg 32 N" dbg_rs1val [31:0] $end
$var reg 1 O" dbg_rs1val_valid $end
$var reg 32 P" dbg_rs2val [31:0] $end
$var reg 1 Q" dbg_rs2val_valid $end
$var reg 1 R" dbg_valid_insn $end
$var reg 32 S" decoded_imm [31:0] $end
$var reg 32 T" decoded_imm_j [31:0] $end
$var reg 5 U" decoded_rd [4:0] $end
$var reg 5 V" decoded_rs [4:0] $end
$var reg 5 W" decoded_rs1 [4:0] $end
$var reg 5 X" decoded_rs2 [4:0] $end
$var reg 1 Y" decoder_pseudo_trigger $end
$var reg 1 Z" decoder_pseudo_trigger_q $end
$var reg 1 [" decoder_trigger $end
$var reg 1 \" decoder_trigger_q $end
$var reg 1 ]" do_waitirq $end
$var reg 32 ^" eoi [31:0] $end
$var reg 1 _" instr_add $end
$var reg 1 `" instr_addi $end
$var reg 1 a" instr_and $end
$var reg 1 b" instr_andi $end
$var reg 1 c" instr_auipc $end
$var reg 1 d" instr_beq $end
$var reg 1 e" instr_bge $end
$var reg 1 f" instr_bgeu $end
$var reg 1 g" instr_blt $end
$var reg 1 h" instr_bltu $end
$var reg 1 i" instr_bne $end
$var reg 1 j" instr_ecall_ebreak $end
$var reg 1 k" instr_fence $end
$var reg 1 l" instr_getq $end
$var reg 1 m" instr_jal $end
$var reg 1 n" instr_jalr $end
$var reg 1 o" instr_lb $end
$var reg 1 p" instr_lbu $end
$var reg 1 q" instr_lh $end
$var reg 1 r" instr_lhu $end
$var reg 1 s" instr_lui $end
$var reg 1 t" instr_lw $end
$var reg 1 u" instr_maskirq $end
$var reg 1 v" instr_or $end
$var reg 1 w" instr_ori $end
$var reg 1 x" instr_rdcycle $end
$var reg 1 y" instr_rdcycleh $end
$var reg 1 z" instr_rdinstr $end
$var reg 1 {" instr_rdinstrh $end
$var reg 1 |" instr_retirq $end
$var reg 1 }" instr_sb $end
$var reg 1 ~" instr_setq $end
$var reg 1 !# instr_sh $end
$var reg 1 "# instr_sll $end
$var reg 1 ## instr_slli $end
$var reg 1 $# instr_slt $end
$var reg 1 %# instr_slti $end
$var reg 1 &# instr_sltiu $end
$var reg 1 '# instr_sltu $end
$var reg 1 (# instr_sra $end
$var reg 1 )# instr_srai $end
$var reg 1 *# instr_srl $end
$var reg 1 +# instr_srli $end
$var reg 1 ,# instr_sub $end
$var reg 1 -# instr_sw $end
$var reg 1 .# instr_timer $end
$var reg 1 /# instr_waitirq $end
$var reg 1 0# instr_xor $end
$var reg 1 1# instr_xori $end
$var reg 1 2# irq_active $end
$var reg 1 3# irq_delay $end
$var reg 32 4# irq_mask [31:0] $end
$var reg 32 5# irq_pending [31:0] $end
$var reg 2 6# irq_state [1:0] $end
$var reg 1 7# is_alu_reg_imm $end
$var reg 1 8# is_alu_reg_reg $end
$var reg 1 9# is_beq_bne_blt_bge_bltu_bgeu $end
$var reg 1 :# is_compare $end
$var reg 1 ;# is_jalr_addi_slti_sltiu_xori_ori_andi $end
$var reg 1 <# is_lb_lh_lw_lbu_lhu $end
$var reg 1 =# is_lbu_lhu_lw $end
$var reg 1 ># is_lui_auipc_jal $end
$var reg 1 ?# is_lui_auipc_jal_jalr_addi_add_sub $end
$var reg 1 @# is_sb_sh_sw $end
$var reg 1 A# is_sll_srl_sra $end
$var reg 1 B# is_slli_srli_srai $end
$var reg 1 C# is_slti_blt_slt $end
$var reg 1 D# is_sltiu_bltu_sltu $end
$var reg 1 E# last_mem_valid $end
$var reg 1 F# latched_branch $end
$var reg 1 G# latched_compr $end
$var reg 1 H# latched_is_lb $end
$var reg 1 I# latched_is_lh $end
$var reg 1 J# latched_is_lu $end
$var reg 5 K# latched_rd [4:0] $end
$var reg 1 L# latched_stalu $end
$var reg 1 M# latched_store $end
$var reg 1 N# latched_trace $end
$var reg 32 O# mem_addr [31:0] $end
$var reg 1 P# mem_do_prefetch $end
$var reg 1 Q# mem_do_rdata $end
$var reg 1 R# mem_do_rinst $end
$var reg 1 S# mem_do_wdata $end
$var reg 1 1 mem_instr $end
$var reg 1 T# mem_la_firstword_reg $end
$var reg 1 U# mem_la_secondword $end
$var reg 32 V# mem_la_wdata [31:0] $end
$var reg 4 W# mem_la_wstrb [3:0] $end
$var reg 32 X# mem_rdata_q [31:0] $end
$var reg 32 Y# mem_rdata_word [31:0] $end
$var reg 2 Z# mem_state [1:0] $end
$var reg 1 . mem_valid $end
$var reg 32 [# mem_wdata [31:0] $end
$var reg 2 \# mem_wordsize [1:0] $end
$var reg 4 ]# mem_wstrb [3:0] $end
$var reg 64 ^# new_ascii_instr [63:0] $end
$var reg 32 _# next_insn_opcode [31:0] $end
$var reg 32 `# next_irq_pending [31:0] $end
$var reg 32 a# pcpi_insn [31:0] $end
$var reg 32 b# pcpi_int_rd [31:0] $end
$var reg 1 c# pcpi_int_ready $end
$var reg 1 d# pcpi_int_wait $end
$var reg 1 e# pcpi_int_wr $end
$var reg 1 f# pcpi_timeout $end
$var reg 1 g# pcpi_valid $end
$var reg 1 h# prefetched_high_word $end
$var reg 64 i# q_ascii_instr [63:0] $end
$var reg 32 j# q_insn_imm [31:0] $end
$var reg 32 k# q_insn_opcode [31:0] $end
$var reg 5 l# q_insn_rd [4:0] $end
$var reg 5 m# q_insn_rs1 [4:0] $end
$var reg 5 n# q_insn_rs2 [4:0] $end
$var reg 32 o# reg_next_pc [31:0] $end
$var reg 32 p# reg_op1 [31:0] $end
$var reg 32 q# reg_op2 [31:0] $end
$var reg 32 r# reg_out [31:0] $end
$var reg 32 s# reg_pc [31:0] $end
$var reg 5 t# reg_sh [4:0] $end
$var reg 1 u# set_mem_do_rdata $end
$var reg 1 v# set_mem_do_rinst $end
$var reg 1 w# set_mem_do_wdata $end
$var reg 32 x# timer [31:0] $end
$var reg 36 y# trace_data [35:0] $end
$var reg 1 z# trace_valid $end
$var reg 1 {# trap $end
$scope begin genblk1 $end
$upscope $end
$scope begin genblk2 $end
$upscope $end
$scope begin genblk3 $end
$upscope $end
$scope task empty_statement $end
$upscope $end
$upscope $end
$scope module u_adapter $end
$var wire 1 ! clk $end
$var wire 1 |# is_read $end
$var wire 1 }# is_write $end
$var wire 32 ~# mem_addr [31:0] $end
$var wire 1 1 mem_instr $end
$var wire 1 $ mem_valid $end
$var wire 32 !$ mem_wdata [31:0] $end
$var wire 4 "$ mem_wstrb [3:0] $end
$var wire 1 " rstn $end
$var wire 32 #$ sram_dout [31:0] $end
$var reg 32 $$ mem_rdata [31:0] $end
$var reg 1 ' mem_ready $end
$var reg 1 %$ pending_read_1 $end
$var reg 1 &$ pending_read_2 $end
$var reg 1 '$ pending_write $end
$var reg 2 ($ sram_addr [1:0] $end
$var reg 32 )$ sram_din [31:0] $end
$var reg 1 & sram_re $end
$var reg 4 *$ sram_we_byte [3:0] $end
$upscope $end
$scope module u_imem $end
$var wire 32 +$ addr [31:0] $end
$var reg 32 ,$ rdata [31:0] $end
$upscope $end
$scope module u_mem $end
$var wire 2 -$ addr [1:0] $end
$var wire 1 ! clk $end
$var wire 32 .$ din [31:0] $end
$var wire 1 & re $end
$var wire 1 /$ rst $end
$var wire 4 0$ we_byte [3:0] $end
$var wire 32 1$ dout [31:0] $end
$scope module s0 $end
$var wire 2 2$ addr [1:0] $end
$var wire 1 ! clk $end
$var wire 8 3$ din [7:0] $end
$var wire 1 & re $end
$var wire 1 4$ we $end
$var reg 8 5$ dout [7:0] $end
$upscope $end
$scope module s1 $end
$var wire 2 6$ addr [1:0] $end
$var wire 1 ! clk $end
$var wire 8 7$ din [7:0] $end
$var wire 1 & re $end
$var wire 1 8$ we $end
$var reg 8 9$ dout [7:0] $end
$upscope $end
$scope module s2 $end
$var wire 2 :$ addr [1:0] $end
$var wire 1 ! clk $end
$var wire 8 ;$ din [7:0] $end
$var wire 1 & re $end
$var wire 1 <$ we $end
$var reg 8 =$ dout [7:0] $end
$upscope $end
$scope module s3 $end
$var wire 2 >$ addr [1:0] $end
$var wire 1 ! clk $end
$var wire 8 ?$ din [7:0] $end
$var wire 1 & re $end
$var wire 1 @$ we $end
$var reg 8 A$ dout [7:0] $end
$upscope $end
$upscope $end
$upscope $end
$upscope $end
$enddefinitions $end
$comment Show the parameter values. $end
$dumpall
b101 '"
b100000 &"
b100000 %"
b0 $"
b1 #"
b10 ""
b10000000 !"
b10 ~
b100 }
b1 |
b10000 {
b100000 z
b1000000 y
b1000 x
0w
1v
0u
0t
b100000000000000000000000000000000000 s
b100000000000000000000000000000000 r
b1000000000000000000000000000000000 q
b11111111111111111111111111111111 p
0o
b0 n
b10000 m
b0 l
0k
b11111111111111111111111111111111 j
0i
1h
1g
0f
0e
1d
1c
0b
0a
0`
1_
1^
0]
1\
1[
0Z
$end
#0
$dumpvars
bx A$
0@$
b0 ?$
b0 >$
bx =$
0<$
b0 ;$
b0 :$
bx 9$
08$
b0 7$
b0 6$
bx 5$
04$
b0 3$
b0 2$
bx 1$
b0 0$
1/$
b0 .$
b0 -$
bx ,$
bx +$
b0 *$
b0 )$
b0 ($
0'$
0&$
0%$
b0 $$
bx #$
bx "$
bx !$
bx ~#
x}#
x|#
x{#
xz#
bx y#
bx x#
xw#
xv#
xu#
bx t#
bx s#
bx r#
bx q#
bx p#
bx o#
bx n#
bx m#
bx l#
bx k#
bx j#
bx i#
xh#
xg#
xf#
0e#
0d#
0c#
bx b#
bx a#
bx `#
bx _#
bx ^#
bx ]#
bx \#
bx [#
bx Z#
bx Y#
bx X#
bx W#
bx V#
xU#
xT#
xS#
xR#
xQ#
xP#
bx O#
xN#
xM#
xL#
bx K#
xJ#
xI#
xH#
xG#
xF#
xE#
xD#
xC#
xB#
xA#
x@#
x?#
x>#
x=#
x<#
x;#
x:#
x9#
x8#
x7#
bx 6#
bx 5#
bx 4#
x3#
x2#
x1#
x0#
x/#
x.#
x-#
x,#
x+#
x*#
x)#
x(#
x'#
x&#
x%#
x$#
x##
x"#
x!#
x~"
x}"
x|"
x{"
xz"
xy"
xx"
xw"
xv"
xu"
xt"
xs"
xr"
xq"
xp"
xo"
xn"
xm"
xl"
xk"
xj"
xi"
xh"
xg"
xf"
xe"
xd"
xc"
xb"
xa"
x`"
x_"
bx ^"
x]"
x\"
x["
xZ"
xY"
bx X"
bx W"
bx V"
bx U"
bx T"
bx S"
xR"
xQ"
bx P"
xO"
bx N"
xM"
bx L"
bx K"
bx J"
bx I"
bx H"
bx G"
bx F"
bx E"
bx D"
xC"
bx B"
bx A"
bx @"
bx ?"
bx >"
bx ="
x<"
x;"
0:"
bx 9"
bx 8"
bx 7"
bx 6"
bx 5"
bx 4"
x3"
x2"
bx 1"
bx 0"
bx /"
x."
x-"
bx ,"
x+"
x*"
x)"
bx ("
xY
xX
bx00 W
bx V
bx U
0T
0S
bx R
bx Q
0P
b0 O
0N
0M
0L
bx K
0J
0I
0H
bx G
xF
bx E
bx D
0C
0B
0A
0@
0?
0>
x=
b0 <
x;
bx :
bx 9
x8
x7
bx 6
x5
bx 4
bx 3
bx 2
x1
bx 0
x/
x.
bx -
bx ,
b0 +
b0 *
bx )
b0 (
0'
0&
b0 %
x$
x#
0"
0!
$end
#5000
17
1/
0F
0|#
0}#
b0 6
b0 0
b0 D
0=
0$
0#
b0 ^#
b110011001100101011101000110001101101000 F"
b0 U
0C"
0E#
0T#
0h#
0U#
08
0.
b0 Z#
0R"
0k"
0a"
0v"
0(#
0*#
00#
0'#
0$#
0"#
0,#
0_"
0b"
0w"
01#
0&#
0%#
0`"
0f"
0h"
0e"
0g"
0i"
0d"
0:#
09#
0;"
b0 5#
0X
0S#
0Q#
0R#
0P#
b1000000 ?"
b0 x#
b0 ^"
b0 6#
b11111111111111111111111111111111 4#
03#
02#
0f#
0g#
0H#
0I#
0J#
0N#
0F#
0L#
0M#
b0 >"
b0 o#
b0 s#
0z#
0]"
0Y"
0["
b0 ="
03"
02"
0{#
b0 `#
0w#
0u#
0v#
1!
#10000
0!
#15000
0Z"
0\"
0D#
0C#
0M"
b0 `#
1!
#20000
0/$
0!
1"
#25000
1A
b0 W
b0 Y#
b1111 W#
bx 5#
b0 \#
1X
1R#
b1 ="
bx D"
bx `#
1!
#30000
0!
#35000
1>
0A
b10000000000000000000010110111 E
b10000000000000000000010110111 V
b10000000000000000000010110111 Y#
1F
b10000000000000000000010110111 6
b10000000000000000000010110111 0
b10000000000000000000010110111 D
1#
b10000000000000000000010110111 3
b10000000000000000000010110111 ,$
b10 ="
b1 Z#
15
11
18
1.
b0 :
b0 ,
b0 ]#
b0 "$
b0 4
b0 2
b0 O#
b0 ~#
b0 +$
bx D"
1!
#40000
0!
#45000
0>
b0 Y#
b10000000000000000000010110111 E
b10000000000000000000010110111 V
0F
b0 6
b0 0
b0 D
bx00 W
1=
0#
b0 A"
b0 @"
b11011000111010101101001 ^#
0;
b0 Z#
08
0.
b10000000000000000000010110111 _#
b10000000000000000000010110111 X#
0<"
b0 X"
b0 W"
b1 U"
b100000000 T"
08#
07#
0@#
0<#
0/#
0|"
0n"
0m"
0c"
1s"
0X
0R#
1["
b11 ="
bx D"
1!
#50000
0!
#55000
1A
b100 W
0=
b11011000110010001011111011100100111001100110001 F"
b100 U
b11011000111010101101001 ^#
b1 J"
b0 L"
b0 K"
b10000000000000000000000000000 H"
b10000000000000000000010110111 I"
b11011000111010101101001 E"
b100000 ?"
1X
1P#
b1 >"
b100 o#
0G#
b1 K#
1\"
0["
b100 ="
0Q"
0O"
b10000000000000000000000000000 S"
0A#
0;#
0B#
0.#
0u"
0~"
0l"
0j"
0Y
0{"
0z"
0y"
0x"
0)#
0+#
0##
0-#
0!#
0}"
0r"
0p"
0t"
0q"
0o"
0?#
1>#
b0 G"
1R"
1M"
bx D"
1!
#60000
0!
#65000
1>
0A
b10010001100000000000100010011 E
b10010001100000000000100010011 V
b10010001100000000000100010011 Y#
1F
b10010001100000000000100010011 6
b10010001100000000000100010011 0
b10010001100000000000100010011 D
1#
b10010001100000000000100010011 3
b10010001100000000000100010011 ,$
b1100101011110000110010101100011 F"
b10000000000000000000000000000 ,"
b10000000000000000000000000000 V#
b0 1"
b0 0"
1+"
1*"
0)"
b10000000000000000000000000000 ("
b1 Z#
18
1.
b100 4
b100 2
b100 O#
b100 ~#
b100 +$
b1 7"
b0 9"
b0 8"
b10000000000000000000010110111 6"
b10000000000000000000000000000 5"
b11011000111010101101001 4"
0M"
b1 l#
b0 n#
b0 m#
b10000000000000000000010110111 k#
b10000000000000000000000000000 j#
b11011000111010101101001 i#
0=#
1?#
b1000 ?"
1R#
b10000000000000000000000000000 R
b10000000000000000000000000000 q#
b0 Q
b0 p#
0\"
b101 ="
1!
#70000
0!
#75000
0>
b0 Y#
b10010001100000000000100010011 E
b10010001100000000000100010011 V
0F
b0 6
b0 0
b0 D
b0 W
1=
0#
b110011001100101011101000110001101101000 F"
1C"
b10000000000000000000000000000 B"
bx A"
b0 ^#
1;
b0 Z#
08
0.
0X
0R#
0P#
b1000000 ?"
1L#
1M#
b10000000000000000000000000000 r#
1["
b110 ="
b10000000000000000000000000000 /"
b11 X"
b10 U"
b100100100010 T"
17#
0s"
b10010001100000000000100010011 _#
b10010001100000000000100010011 X#
1!
#80000
0!
#85000
1A
b1000 W
0=
b10 J"
b11 L"
b100100011 H"
b10010001100000000000100010011 I"
b1100001011001000110010001101001 E"
b1100001011001000110010001101001 ^#
0;
bx ,"
b11011000110010001011111011100100111001100110001 F"
b1000 U
bx B"
0C"
b100 G"
1M"
b100100011 S"
1;#
1`"
0?#
0>#
b100000 ?"
1X
1P#
b10 >"
b1000 o#
b10 K#
0L#
0M#
b100 s#
1\"
0["
b111 ="
bx r#
bx D"
1!
#90000
0!
#95000
1>
0A
b1000001010000000100011 E
b1000001010000000100011 V
b1000001010000000100011 Y#
1F
b1000001010000000100011 6
b1000001010000000100011 0
b1000001010000000100011 D
1#
b1000001010000000100011 3
b1000001010000000100011 ,$
b1100101011110000110010101100011 F"
b100100011 V#
b100100011 ("
b100100011 ,"
b1 Z#
18
1.
b1000 4
b1000 2
b1000 O#
b1000 ~#
b1000 +$
b1000 ?"
1R#
1O"
b0 N"
b100100011 R
b100100011 q#
b0 Q
b0 p#
0\"
b1000 ="
bx /"
1?#
b10 7"
b11 9"
b10010001100000000000100010011 6"
b100100011 5"
b1100001011001000110010001101001 4"
0M"
b10 l#
b11 n#
b10010001100000000000100010011 k#
b100100011 j#
b1100001011001000110010001101001 i#
1!
#100000
0!
#105000
0>
b0 Y#
b1000001010000000100011 E
b1000001010000000100011 V
0F
b0 6
b0 0
b0 D
b0 W
1=
0#
b10000000000000000000000000000 @"
b110011001100101011101000110001101101000 F"
1C"
b100100011 B"
b0 Z#
08
0.
b1000001010000000100011 _#
b1000001010000000100011 X#
b10 X"
b1 W"
b0 U"
b1010000000000010 T"
07#
1@#
0X
0R#
0P#
b1000000 ?"
1L#
1M#
b100100111 r#
1["
b1001 ="
b100100011 /"
1!
#110000
0!
#115000
1A
b1100 W
0=
b111001101110111 E"
b11011000110010001011111011100100111001100110001 F"
b1100 U
bx B"
0C"
b100100011 A"
bx ,"
b111001101110111 ^#
b0 J"
b10 L"
b1 K"
b0 H"
b1000001010000000100011 I"
b100000 ?"
1X
1P#
b11 >"
b1100 o#
b0 K#
0L#
0M#
b1000 s#
1\"
0["
b1010 ="
0O"
bx N"
bx r#
b0 S"
0?#
0;#
0`"
1-#
b1000 G"
1M"
bx D"
1!
#120000
0!
#125000
1>
0A
b1010000110000011 E
b1010000110000011 V
b1010000110000011 Y#
1F
b1010000110000011 6
b1010000110000011 0
b1010000110000011 D
1#
b1010000110000011 3
b1010000110000011 ,$
b111001101110100011011010110010101101101 F"
b10000000000000000000000000 1"
b10000000000000000000000000000000 0"
0+"
0*"
b10000000000000000000100100011 ("
b1 Z#
18
1.
b1100 4
b1100 2
b1100 O#
b1100 ~#
b1100 +$
b0 7"
b10 9"
b1 8"
b1000001010000000100011 6"
b0 5"
b111001101110111 4"
0M"
b0 l#
b10 n#
b1 m#
b1000001010000000100011 k#
b0 j#
b111001101110111 i#
1R#
b10 ?"
1Q"
b100100011 P"
b11 t#
1O"
b10000000000000000000000000000 N"
b100100011 R
b100100011 q#
b10000000000000000000000000000 Q
b10000000000000000000000000000 p#
0\"
b1011 ="
bx /"
1!
#130000
0!
#135000
0>
b0 Y#
b1010000110000011 E
b1010000110000011 V
1C
0F
b0 6
b0 0
b0 D
b10000000000000000000000000000 W
0#
b0 A"
b0 Z#
08
0.
1S#
1X
0R#
0P#
1["
b1100 ="
bx t#
b0 X"
b11 U"
b1010000000000000 T"
0@#
1<#
b1010000110000011 _#
b1010000110000011 X#
1w#
1!
#140000
0!
#145000
0>
b1010000110000011 E
b1010000110000011 V
07
0/
b0 Y#
0C
0F
1}#
b0 6
b0 0
b0 D
b110110001110111 ^#
1$
0#
b10011 3
b10011 ,$
0-#
1t"
1\"
0["
b1101 ="
b10 Z#
05
01
18
1.
b100100011 9
b100100011 -
b100100011 [#
b100100011 !$
b1111 :
b1111 ,
b1111 ]#
b1111 "$
b10000000000000000000000000000 4
b10000000000000000000000000000 2
b10000000000000000000000000000 O#
b10000000000000000000000000000 ~#
b10000000000000000000000000000 +$
0w#
1!
#150000
0!
#155000
14$
18$
1<$
1@$
b100011 3$
b1 7$
0\"
b1110 ="
1=#
b11 7"
b0 9"
b1010000110000011 6"
b110110001110111 4"
1E#
1'$
b1111 %
b1111 *$
b1111 0$
b100100011 *
b100100011 )$
b100100011 .$
1!
#160000
0!
#165000
1>
b0 E
b0 V
1F
17
1/
04$
08$
0<$
0@$
b1111 ="
0'$
1'
b0 %
b0 *$
b0 0$
1!
#170000
0!
#175000
0>
0F
0}#
1=
17
1/
0$
b110011001100101011101000110001101101000 F"
14$
18$
1<$
1@$
b0 Z#
08
0.
0X
0S#
1Y"
1["
b1000000 ?"
b10000 ="
b0 _#
b0 X#
0E#
1'$
b1111 %
b1111 *$
b1111 0$
0'
1!
#180000
0!
#185000
1A
b10000 W
0=
b11011000110010001011111011100100111001100110001 F"
b10000 U
b11 J"
b0 L"
b1010000110000011 I"
b110110001110111 E"
04$
08$
0<$
0@$
b1100 G"
1M"
b100000 ?"
1X
1P#
b100 >"
b10000 o#
b11 K#
b1100 s#
1Z"
0Y"
1\"
0["
b10001 ="
0Q"
0O"
bx P"
bx N"
0'$
1'
b0 %
b0 *$
b0 0$
bx D"
1!
#190000
0!
#195000
1>
0A
b1101111 Y#
b1101111 E
b1101111 V
b1101111 6
b1101111 0
b1101111 D
1#
1F
b1101111 3
b1101111 ,$
b110110001100100011011010110010101101101 F"
bx V#
bx 1"
bx 0"
x+"
x*"
x)"
bx ("
b1 Z#
15
11
18
1.
b0 :
b0 ,
b0 ]#
b0 "$
b10000 4
b10000 2
b10000 O#
b10000 ~#
b10000 +$
1R#
b1 ?"
1O"
b10000000000000000000000000000 N"
bx R
bx q#
b10000000000000000000000000000 Q
b10000000000000000000000000000 p#
0Z"
0\"
b10010 ="
b0 6"
0M"
b11 l#
b0 n#
b1010000110000011 k#
b110110001110111 i#
0'
1!
#200000
0!
#205000
0>
1A
b0 Y#
b1101111 E
b1101111 V
0F
b0 6
b0 0
b0 D
b10000000000000000000000000000 W
0#
b0 @"
b110110001110111 ^#
b0 Z#
08
0.
b1101111 _#
b1101111 X#
b0 W"
b0 U"
b0 T"
0<#
1m"
1Q#
1X
0R#
0P#
1J#
1M#
1["
b10011 ="
1u#
1!
#210000
0!
#215000
0>
0A
b1101111 E
b1101111 V
07
0/
b0 Y#
0F
1|#
b0 6
b0 0
b0 D
b11010100110000101101100 ^#
1$
0#
b10011 3
b10011 ,$
1\"
0["
b10100 ="
0t"
0?#
1>#
b1 Z#
05
01
18
1.
b10000000000000000000000000000 4
b10000000000000000000000000000 2
b10000000000000000000000000000 O#
b10000000000000000000000000000 ~#
b10000000000000000000000000000 +$
0u#
1!
#220000
0!
#225000
1E#
b0 7"
b0 8"
b1101111 6"
b11010100110000101101100 4"
0=#
1?#
0\"
b10101 ="
1%$
1&
1!
#230000
0!
#235000
b0 A$
b0 =$
b1 9$
b100100011 )
b100100011 #$
b100100011 1$
b100011 5$
b10110 ="
1&$
0%$
0&
1!
#240000
0!
#245000
1>
b100100011 E
b100100011 V
1F
b100100011 Y#
17
1/
b100100011 6
b100100011 0
b100100011 D
b10111 ="
0&$
1'
b100100011 (
b100100011 $$
1!
#250000
0!
#255000
0>
b0 Y#
b0 6
b0 0
b0 D
0F
0|#
1=
17
1/
0$
b110011001100101011101000110001101101000 F"
1C"
b100100011 B"
b0 Z#
08
0.
0X
0Q#
b1000000 ?"
1Y"
1["
b100100011 r#
b11000 ="
b100100011 _#
b100100011 X#
0E#
1%$
1&
0'
1!
#260000
0!
#265000
1A
b10000 W
0=
b0 J"
b0 K"
b1101111 I"
b11010100110000101101100 E"
b10100 B"
1C"
b10000 G"
1M"
1F#
1X
1R#
b101 >"
b10000 o#
b0 K#
0J#
0M#
b10000 s#
1Z"
0Y"
1\"
0["
b11001 ="
0O"
bx N"
bx r#
1&$
0%$
0&
bx D"
1!
#270000
0!
