sim/wave.vcd
$date
	Thu Mar 19 12:43:08 2026
$end
$version
	Icarus Verilog
$end
$timescale
	1ps
$end
$scope module tb_sram $end
$var wire 8 ! dout [7:0] $end
$var reg 2 " addr [1:0] $end
$var reg 1 # clk $end
$var reg 8 $ din [7:0] $end
$var reg 1 % re $end
$var reg 1 & rst $end
$var reg 1 ' we $end
$scope module uut $end
$var wire 2 ( addr [1:0] $end
$var wire 1 # clk $end
$var wire 8 ) din [7:0] $end
$var wire 1 % re $end
$var wire 1 & rst $end
$var wire 1 ' we $end
$var wire 8 * wr [7:0] $end
$var wire 4 + wl [3:0] $end
$var wire 1 , we_pulse $end
$var wire 1 - sense_en $end
$var wire 8 . sen [7:0] $end
$var wire 1 / re_pulse $end
$var wire 8 0 rd [7:0] $end
$var wire 1 1 precharge $end
$var wire 8 2 pre [7:0] $end
$var wire 8 3 dout [7:0] $end
$scope module u_ctrl $end
$var wire 1 # clk $end
$var wire 1 / re_pulse $end
$var wire 1 % re_req $end
$var wire 1 & rst $end
$var wire 1 - sense_en $end
$var wire 1 , we_pulse $end
$var wire 1 ' we_req $end
$var wire 1 1 precharge $end
$var reg 2 4 next_state [1:0] $end
$var reg 2 5 state [1:0] $end
$upscope $end
$scope module u_dec $end
$var wire 2 6 addr [1:0] $end
$var wire 1 7 en $end
$var wire 4 8 wl [3:0] $end
$var wire 4 9 decoded [3:0] $end
$upscope $end
$scope module u_sram $end
$var wire 2 : addr [1:0] $end
$var wire 1 # clk $end
$var wire 8 ; din [7:0] $end
$var wire 1 % re $end
$var wire 1 ' we $end
$var reg 8 < dout [7:0] $end
$upscope $end
$upscope $end
$upscope $end
$enddefinitions $end
$comment Show the parameter values. $end
$dumpall
$end
#0
$dumpvars
bx <
b0 ;
b0 :
b1 9
b0 8
07
b0 6
b0 5
b1 4
bx 3
b11111111 2
11
b0 0
0/
b0 .
0-
0,
b0 +
b0 *
b0 )
b0 (
0'
1&
0%
b0 $
0#
b0 "
bx !
$end
#5000
1#
#10000
0#
0&
#15000
b10 4
b11111111 .
1-
b0 2
01
b1 5
1#
#20000
b10 +
b10 8
17
b11111111 *
1,
0#
1'
b10101010 $
b10101010 )
b10101010 ;
b10 9
b1 "
b1 (
b1 6
b1 :
#25000
b0 4
b0 *
0,
b10 5
1#
#30000
b0 +
b0 8
07
0#
0'
#35000
b1 4
b0 .
0-
b11111111 2
11
b0 5
1#
#40000
0#
#45000
b10 4
b11111111 .
1-
b0 2
01
b1 5
1#
#50000
b10 +
b10 8
17
b11111111 0
1/
0#
1%
#55000
b0 4
b0 0
0/
b10 5
b10101010 !
b10101010 3
b10101010 <
1#
#60000
b0 +
b0 8
07
0#
0%
#65000
b1 4
b0 .
0-
b11111111 2
11
b0 5
1#
#70000
0#
#75000
b10 4
b11111111 .
1-
b0 2
01
b1 5
1#
#80000
0#
#85000
b0 4
b10 5
1#
#90000
0#
#95000
b1 4
b0 .
0-
b11111111 2
11
b0 5
1#
#100000
0#
#105000
b10 4
b11111111 .
1-
b0 2
01
b1 5
1#
